EESchema Schematic File Version 2
LIBS:sensor-rescue
LIBS:power
LIBS:device
LIBS:transistors
LIBS:conn
LIBS:linear
LIBS:regul
LIBS:74xx
LIBS:cmos4000
LIBS:adc-dac
LIBS:memory
LIBS:xilinx
LIBS:microcontrollers
LIBS:dsp
LIBS:microchip
LIBS:analog_switches
LIBS:motorola
LIBS:texas
LIBS:intel
LIBS:audio
LIBS:interface
LIBS:digital-audio
LIBS:philips
LIBS:display
LIBS:cypress
LIBS:siliconi
LIBS:opto
LIBS:atmel
LIBS:contrib
LIBS:valves
LIBS:PIEZO
LIBS:hcf4093
LIBS:NE555P
LIBS:sensor-cache
EELAYER 25 0
EELAYER END
$Descr A4 11693 8268
encoding utf-8
Sheet 1 1
Title ""
Date ""
Rev ""
Comp ""
Comment1 ""
Comment2 ""
Comment3 ""
Comment4 ""
$EndDescr
$Comp
L PIEZO PIEZO1
U 1 1 5B2ADD8F
P 800 950
F 0 "PIEZO1" H 900 1000 40  0000 L CNN
F 1 "PIEZO" H 900 900 40  0000 L CNN
F 2 "" H 800 950 60  0000 C CNN
F 3 "" H 800 950 60  0000 C CNN
	1    800  950 
	0    -1   -1   0   
$EndComp
$Comp
L POT-RESCUE-sensor RV1
U 1 1 5B2ADF14
P 1150 2600
F 0 "RV1" H 1150 2520 50  0000 C CNN
F 1 "1M" H 1150 2600 50  0000 C CNN
F 2 "" H 1150 2600 50  0000 C CNN
F 3 "" H 1150 2600 50  0000 C CNN
	1    1150 2600
	0    1    1    0   
$EndComp
$Comp
L GND #PWR?
U 1 1 5B2ADFAF
P 950 2750
F 0 "#PWR?" H 950 2500 50  0001 C CNN
F 1 "GND" H 950 2600 50  0000 C CNN
F 2 "" H 950 2750 50  0000 C CNN
F 3 "" H 950 2750 50  0000 C CNN
	1    950  2750
	1    0    0    -1  
$EndComp
$Comp
L POT-RESCUE-sensor RV2
U 1 1 5B2AE287
P 1450 1950
F 0 "RV2" H 1450 1870 50  0000 C CNN
F 1 "300k" H 1450 1950 50  0000 C CNN
F 2 "" H 1450 1950 50  0000 C CNN
F 3 "" H 1450 1950 50  0000 C CNN
	1    1450 1950
	-1   0    0    1   
$EndComp
$Comp
L LM358N U1
U 1 1 5B2AE3BA
P 2900 2050
F 0 "U1" H 2850 2250 50  0000 L CNN
F 1 "LM358N" H 2850 1800 50  0000 L CNN
F 2 "" H 2900 2050 50  0000 C CNN
F 3 "" H 2900 2050 50  0000 C CNN
	1    2900 2050
	1    0    0    -1  
$EndComp
$Comp
L -5V #PWR?
U 1 1 5B2AE53A
P 3200 2600
F 0 "#PWR?" H 3200 2700 50  0001 C CNN
F 1 "-3V3" H 3200 2750 50  0000 C CNN
F 2 "" H 3200 2600 50  0000 C CNN
F 3 "" H 3200 2600 50  0000 C CNN
	1    3200 2600
	1    0    0    -1  
$EndComp
$Comp
L -5V #PWR?
U 1 1 5B2AE595
P 2800 1700
F 0 "#PWR?" H 2800 1800 50  0001 C CNN
F 1 "+3V3" H 2800 1850 50  0000 C CNN
F 2 "" H 2800 1700 50  0000 C CNN
F 3 "" H 2800 1700 50  0000 C CNN
	1    2800 1700
	1    0    0    -1  
$EndComp
$Comp
L C C1
U 1 1 5B2AE64E
P 3500 2450
F 0 "C1" H 3525 2550 50  0000 L CNN
F 1 "100n" H 3525 2350 50  0000 L CNN
F 2 "" H 3538 2300 50  0000 C CNN
F 3 "" H 3500 2450 50  0000 C CNN
	1    3500 2450
	1    0    0    -1  
$EndComp
$Comp
L POT-RESCUE-sensor RV6
U 1 1 5B2AE750
P 2250 1450
F 0 "RV6" H 2250 1370 50  0000 C CNN
F 1 "300k" H 2250 1450 50  0000 C CNN
F 2 "" H 2250 1450 50  0000 C CNN
F 3 "" H 2250 1450 50  0000 C CNN
	1    2250 1450
	-1   0    0    1   
$EndComp
$Comp
L CONN_01X02 P1
U 1 1 5B2AE9EF
P 4750 1250
F 0 "P1" H 4750 1400 50  0000 C CNN
F 1 "CONN_01X02" V 4850 1250 50  0000 C CNN
F 2 "" H 4750 1250 50  0000 C CNN
F 3 "" H 4750 1250 50  0000 C CNN
	1    4750 1250
	0    -1   -1   0   
$EndComp
$Comp
L GND #PWR?
U 1 1 5B2AEAC7
P 4800 1550
F 0 "#PWR?" H 4800 1300 50  0001 C CNN
F 1 "GND" H 4800 1400 50  0000 C CNN
F 2 "" H 4800 1550 50  0000 C CNN
F 3 "" H 4800 1550 50  0000 C CNN
	1    4800 1550
	1    0    0    -1  
$EndComp
Text Notes 3950 1300 0    60   ~ 0
audio in/out
$Comp
L C C2
U 1 1 5B2AEEBD
P 4950 1950
F 0 "C2" H 4975 2050 50  0000 L CNN
F 1 "100n" H 4975 1850 50  0000 L CNN
F 2 "" H 4988 1800 50  0000 C CNN
F 3 "" H 4950 1950 50  0000 C CNN
	1    4950 1950
	0    1    1    0   
$EndComp
$Comp
L R R1
U 1 1 5B2AEFB1
P 5400 1950
F 0 "R1" V 5480 1950 50  0000 C CNN
F 1 "10k" V 5400 1950 50  0000 C CNN
F 2 "" V 5330 1950 50  0000 C CNN
F 3 "" H 5400 1950 50  0000 C CNN
	1    5400 1950
	0    1    1    0   
$EndComp
$Comp
L LM358N U2
U 1 1 5B2AF0CA
P 6250 1850
F 0 "U2" H 6200 2050 50  0000 L CNN
F 1 "LM358N" H 6200 1600 50  0000 L CNN
F 2 "" H 6250 1850 50  0000 C CNN
F 3 "" H 6250 1850 50  0000 C CNN
	1    6250 1850
	1    0    0    -1  
$EndComp
$Comp
L C C3
U 1 1 5B2AF284
P 6850 2350
F 0 "C3" H 6875 2450 50  0000 L CNN
F 1 "100n" H 6875 2250 50  0000 L CNN
F 2 "" H 6888 2200 50  0000 C CNN
F 3 "" H 6850 2350 50  0000 C CNN
	1    6850 2350
	1    0    0    -1  
$EndComp
$Comp
L -5V #PWR?
U 1 1 5B2AF307
P 6550 2500
F 0 "#PWR?" H 6550 2600 50  0001 C CNN
F 1 "-3V3" H 6550 2650 50  0000 C CNN
F 2 "" H 6550 2500 50  0000 C CNN
F 3 "" H 6550 2500 50  0000 C CNN
	1    6550 2500
	1    0    0    -1  
$EndComp
$Comp
L -5V #PWR?
U 1 1 5B2AF3B9
P 6150 1500
F 0 "#PWR?" H 6150 1600 50  0001 C CNN
F 1 "+3V3" H 6150 1650 50  0000 C CNN
F 2 "" H 6150 1500 50  0000 C CNN
F 3 "" H 6150 1500 50  0000 C CNN
	1    6150 1500
	1    0    0    -1  
$EndComp
$Comp
L GND #PWR?
U 1 1 5B2AF45F
P 5850 2600
F 0 "#PWR?" H 5850 2350 50  0001 C CNN
F 1 "GND" H 5850 2450 50  0000 C CNN
F 2 "" H 5850 2600 50  0000 C CNN
F 3 "" H 5850 2600 50  0000 C CNN
	1    5850 2600
	1    0    0    -1  
$EndComp
$Comp
L POT-RESCUE-sensor RV3
U 1 1 5B2AF5CB
P 5750 1050
F 0 "RV3" H 5750 970 50  0000 C CNN
F 1 "50k" H 5750 1050 50  0000 C CNN
F 2 "" H 5750 1050 50  0000 C CNN
F 3 "" H 5750 1050 50  0000 C CNN
	1    5750 1050
	-1   0    0    1   
$EndComp
$Comp
L POT-RESCUE-sensor RV4
U 1 1 5B2AF6EA
P 7350 2000
F 0 "RV4" H 7350 1920 50  0000 C CNN
F 1 "10k" H 7350 2000 50  0000 C CNN
F 2 "" H 7350 2000 50  0000 C CNN
F 3 "" H 7350 2000 50  0000 C CNN
	1    7350 2000
	0    1    1    0   
$EndComp
$Comp
L LM358N U2
U 2 1 5B2AF7E9
P 8100 2100
F 0 "U2" H 8050 2300 50  0000 L CNN
F 1 "LM358N" H 8050 1850 50  0000 L CNN
F 2 "" H 8100 2100 50  0000 C CNN
F 3 "" H 8100 2100 50  0000 C CNN
	2    8100 2100
	1    0    0    -1  
$EndComp
$Comp
L R R2
U 1 1 5B2AF8DC
P 8050 1400
F 0 "R2" V 8130 1400 50  0000 C CNN
F 1 "10k" V 8050 1400 50  0000 C CNN
F 2 "" V 7980 1400 50  0000 C CNN
F 3 "" H 8050 1400 50  0000 C CNN
	1    8050 1400
	0    1    1    0   
$EndComp
$Comp
L C C4
U 1 1 5B2AFC10
P 8050 850
F 0 "C4" H 8075 950 50  0000 L CNN
F 1 "100n" H 8075 750 50  0000 L CNN
F 2 "" H 8088 700 50  0000 C CNN
F 3 "" H 8050 850 50  0000 C CNN
	1    8050 850 
	0    1    1    0   
$EndComp
Wire Wire Line
	600  2750 2500 2750
Wire Wire Line
	1750 2600 1950 2600
Wire Wire Line
	1300 2600 1450 2600
Wire Wire Line
	2300 2750 2300 2600
Connection ~ 1150 2750
Wire Wire Line
	1300 2600 1300 1950
Connection ~ 1300 2600
Wire Wire Line
	2500 2750 2500 1950
Connection ~ 2300 2750
Wire Wire Line
	2800 1750 2800 1700
Wire Wire Line
	2800 2600 3500 2600
Wire Wire Line
	2800 2600 2800 2350
Connection ~ 3200 2600
Wire Wire Line
	3500 2300 3500 1700
Wire Wire Line
	3500 1700 2800 1700
Connection ~ 2800 1700
Wire Wire Line
	1450 2150 1450 2100
Wire Wire Line
	3200 2050 3200 1450
Wire Wire Line
	2250 1600 2250 2150
Connection ~ 2250 2150
Connection ~ 3200 2050
Wire Wire Line
	5100 1950 5250 1950
Wire Wire Line
	5550 1950 5950 1950
Wire Wire Line
	6150 2500 6150 2150
Connection ~ 6550 2500
Wire Wire Line
	6150 1500 6150 1550
Connection ~ 6150 1550
Wire Wire Line
	5950 1750 5850 1750
Wire Wire Line
	5850 1750 5850 2600
Wire Wire Line
	6550 1850 6550 1050
Wire Wire Line
	6550 1050 5900 1050
Wire Wire Line
	5750 1200 5750 1950
Connection ~ 5750 1950
Wire Wire Line
	7350 1850 6550 1850
Connection ~ 6550 1850
Connection ~ 6850 2500
Wire Wire Line
	8400 850  8400 2100
Wire Wire Line
	8400 1400 8200 1400
Wire Wire Line
	7900 1400 7650 1400
Wire Wire Line
	7650 850  7650 2200
Wire Wire Line
	7650 2200 7800 2200
Connection ~ 7650 1400
Connection ~ 8400 1400
Connection ~ 6850 1550
$Comp
L LM358N U3
U 1 1 5B2B18A7
P 9000 2200
F 0 "U3" H 8950 2400 50  0000 L CNN
F 1 "LM358N" H 8950 1950 50  0000 L CNN
F 2 "" H 9000 2200 50  0000 C CNN
F 3 "" H 9000 2200 50  0000 C CNN
	1    9000 2200
	1    0    0    -1  
$EndComp
$Comp
L -5V #PWR?
U 1 1 5B2B1940
P 8650 2800
F 0 "#PWR?" H 8650 2900 50  0001 C CNN
F 1 "-3V3" H 8650 2950 50  0000 C CNN
F 2 "" H 8650 2800 50  0000 C CNN
F 3 "" H 8650 2800 50  0000 C CNN
	1    8650 2800
	1    0    0    -1  
$EndComp
Wire Wire Line
	8900 2500 8900 2800
Wire Wire Line
	8650 2800 9650 2800
$Comp
L -5V #PWR?
U 1 1 5B2B19D7
P 8900 1850
F 0 "#PWR?" H 8900 1950 50  0001 C CNN
F 1 "+3V3" H 8900 2000 50  0000 C CNN
F 2 "" H 8900 1850 50  0000 C CNN
F 3 "" H 8900 1850 50  0000 C CNN
	1    8900 1850
	1    0    0    -1  
$EndComp
Wire Wire Line
	8900 1850 8900 1900
$Comp
L C C5
U 1 1 5B2B1A70
P 9450 2650
F 0 "C5" H 9475 2750 50  0000 L CNN
F 1 "100n" H 9475 2550 50  0000 L CNN
F 2 "" H 9488 2500 50  0000 C CNN
F 3 "" H 9450 2650 50  0000 C CNN
	1    9450 2650
	1    0    0    -1  
$EndComp
Connection ~ 8900 2800
Wire Wire Line
	9450 2500 9450 1850
Wire Wire Line
	8900 1850 9950 1850
Connection ~ 8900 1850
Wire Wire Line
	8400 2100 8700 2100
Wire Wire Line
	8000 1550 8000 1800
Wire Wire Line
	6850 1550 6850 2200
Wire Wire Line
	8000 2500 8000 2400
$Comp
L D D3
U 1 1 5B2B5CEC
P 10200 2350
F 0 "D3" H 10200 2450 50  0000 C CNN
F 1 "D" H 10200 2250 50  0000 C CNN
F 2 "" H 10200 2350 50  0000 C CNN
F 3 "" H 10200 2350 50  0000 C CNN
	1    10200 2350
	0    1    1    0   
$EndComp
Wire Wire Line
	8650 2500 8650 2300
Wire Wire Line
	8650 2300 8700 2300
$Comp
L D D4
U 1 1 5B2B5DC4
P 10500 2200
F 0 "D4" H 10500 2300 50  0000 C CNN
F 1 "D" H 10500 2100 50  0000 C CNN
F 2 "" H 10500 2200 50  0000 C CNN
F 3 "" H 10500 2200 50  0000 C CNN
	1    10500 2200
	-1   0    0    1   
$EndComp
Wire Wire Line
	8650 2500 10350 2500
Wire Wire Line
	9300 2200 10350 2200
Connection ~ 10200 2200
$Comp
L R R9
U 1 1 5B2B6130
P 10500 2500
F 0 "R9" V 10580 2500 50  0000 C CNN
F 1 "100k" V 10500 2500 50  0000 C CNN
F 2 "" V 10430 2500 50  0000 C CNN
F 3 "" H 10500 2500 50  0000 C CNN
	1    10500 2500
	0    1    1    0   
$EndComp
Connection ~ 10200 2500
Wire Wire Line
	10650 2200 10650 2650
$Comp
L CP C6
U 1 1 5B2B635A
P 10650 2800
F 0 "C6" H 10675 2900 50  0000 L CNN
F 1 "4.7µ" H 10675 2700 50  0000 L CNN
F 2 "" H 10688 2650 50  0000 C CNN
F 3 "" H 10650 2800 50  0000 C CNN
	1    10650 2800
	1    0    0    -1  
$EndComp
Connection ~ 10650 2500
$Comp
L GND #PWR?
U 1 1 5B2B644D
P 10650 3050
F 0 "#PWR?" H 10650 2800 50  0001 C CNN
F 1 "GND" H 10650 2900 50  0000 C CNN
F 2 "" H 10650 3050 50  0000 C CNN
F 3 "" H 10650 3050 50  0000 C CNN
	1    10650 3050
	1    0    0    -1  
$EndComp
Wire Wire Line
	10650 2950 10650 3050
$Comp
L LM358N U3
U 2 1 5B2B7978
P 9550 3900
F 0 "U3" H 9500 4100 50  0000 L CNN
F 1 "LM358N" H 9500 3650 50  0000 L CNN
F 2 "" H 9550 3900 50  0000 C CNN
F 3 "" H 9550 3900 50  0000 C CNN
	2    9550 3900
	-1   0    0    1   
$EndComp
Wire Wire Line
	10650 2500 11000 2500
Wire Wire Line
	11000 2500 11000 4000
Wire Wire Line
	11000 4000 9850 4000
$Comp
L POT-RESCUE-sensor RV5
U 1 1 5B2B7DD8
P 9000 3350
F 0 "RV5" H 9000 3270 50  0000 C CNN
F 1 "50k" H 9000 3350 50  0000 C CNN
F 2 "" H 9000 3350 50  0000 C CNN
F 3 "" H 9000 3350 50  0000 C CNN
	1    9000 3350
	0    1    1    0   
$EndComp
Wire Wire Line
	9150 3350 10100 3350
Wire Wire Line
	10100 3350 10100 3800
Wire Wire Line
	10100 3800 9850 3800
$Comp
L GND #PWR?
U 1 1 5B2B7FB2
P 8500 3150
F 0 "#PWR?" H 8500 2900 50  0001 C CNN
F 1 "GND" H 8500 3000 50  0000 C CNN
F 2 "" H 8500 3150 50  0000 C CNN
F 3 "" H 8500 3150 50  0000 C CNN
	1    8500 3150
	1    0    0    -1  
$EndComp
Wire Wire Line
	9000 3200 9000 3150
Wire Wire Line
	9000 3150 8500 3150
Wire Wire Line
	9250 3900 9000 3900
Wire Wire Line
	9000 3500 9000 4700
Wire Wire Line
	9650 2800 9650 3600
Connection ~ 9450 2800
Wire Wire Line
	9650 4200 9950 4200
Wire Wire Line
	9950 4200 9950 1850
Connection ~ 9450 1850
$Comp
L LM311N U4
U 1 1 5B2BC6E9
P 8300 4600
F 0 "U4" H 8300 4850 50  0000 L CNN
F 1 "LM311N" H 8300 4750 50  0000 L CNN
F 2 "" H 8300 4600 50  0000 C CNN
F 3 "" H 8300 4600 50  0000 C CNN
	1    8300 4600
	-1   0    0    1   
$EndComp
Wire Wire Line
	9000 4700 8600 4700
Connection ~ 9000 3900
$Comp
L CONN_01X03 P2
U 1 1 5B2BC848
P 5750 6450
F 0 "P2" H 5750 6650 50  0000 C CNN
F 1 "CONN_01X03" V 5850 6450 50  0000 C CNN
F 2 "" H 5750 6450 50  0000 C CNN
F 3 "" H 5750 6450 50  0000 C CNN
	1    5750 6450
	0    1    1    0   
$EndComp
$Comp
L GND #PWR?
U 1 1 5B2BCBCB
P 5500 5550
F 0 "#PWR?" H 5500 5300 50  0001 C CNN
F 1 "GND" H 5500 5400 50  0000 C CNN
F 2 "" H 5500 5550 50  0000 C CNN
F 3 "" H 5500 5550 50  0000 C CNN
	1    5500 5550
	1    0    0    -1  
$EndComp
Wire Wire Line
	5750 6000 9500 6000
Text Notes 5900 6000 0    60   ~ 0
trigger-threshold-in
$Comp
L R R8
U 1 1 5B2BD423
P 9350 5050
F 0 "R8" V 9430 5050 50  0000 C CNN
F 1 "1k" V 9350 5050 50  0000 C CNN
F 2 "" V 9280 5050 50  0000 C CNN
F 3 "" H 9350 5050 50  0000 C CNN
	1    9350 5050
	0    1    1    0   
$EndComp
$Comp
L CP C14
U 1 1 5B2BD9D5
P 9200 5350
F 0 "C14" H 9225 5450 50  0000 L CNN
F 1 "47µ" H 9225 5250 50  0000 L CNN
F 2 "" H 9238 5200 50  0000 C CNN
F 3 "" H 9200 5350 50  0000 C CNN
	1    9200 5350
	1    0    0    -1  
$EndComp
Wire Wire Line
	9200 4500 9200 5200
$Comp
L GND #PWR?
U 1 1 5B2BDB4A
P 9200 5600
F 0 "#PWR?" H 9200 5350 50  0001 C CNN
F 1 "GND" H 9200 5450 50  0000 C CNN
F 2 "" H 9200 5600 50  0000 C CNN
F 3 "" H 9200 5600 50  0000 C CNN
	1    9200 5600
	1    0    0    -1  
$EndComp
Wire Wire Line
	9200 5500 9200 5600
Wire Wire Line
	8600 4500 9200 4500
Connection ~ 9200 5050
Wire Wire Line
	8400 5200 8400 4900
Wire Wire Line
	7750 5200 8700 5200
Wire Wire Line
	8400 3950 8400 4300
$Comp
L C C7
U 1 1 5B2BF605
P 8700 5000
F 0 "C7" H 8725 5100 50  0000 L CNN
F 1 "100n" H 8725 4900 50  0000 L CNN
F 2 "" H 8738 4850 50  0000 C CNN
F 3 "" H 8700 5000 50  0000 C CNN
	1    8700 5000
	1    0    0    -1  
$EndComp
Wire Wire Line
	8700 5200 8700 5150
Connection ~ 8400 5200
Wire Wire Line
	8700 4200 8700 4850
Wire Wire Line
	8300 4200 8700 4200
Connection ~ 8400 4200
$Comp
L R R3
U 1 1 5B2BF7C8
P 7750 5050
F 0 "R3" V 7830 5050 50  0000 C CNN
F 1 "660" V 7750 5050 50  0000 C CNN
F 2 "" V 7680 5050 50  0000 C CNN
F 3 "" H 7750 5050 50  0000 C CNN
	1    7750 5050
	-1   0    0    1   
$EndComp
Wire Wire Line
	7750 4900 7750 4600
Wire Wire Line
	7000 4600 8000 4600
Connection ~ 8150 5200
$Comp
L -5V #PWR?
U 1 1 5B2BE8A3
P 8150 5200
F 0 "#PWR?" H 8150 5300 50  0001 C CNN
F 1 "+3V3" H 8150 5350 50  0000 C CNN
F 2 "" H 8150 5200 50  0000 C CNN
F 3 "" H 8150 5200 50  0000 C CNN
	1    8150 5200
	1    0    0    -1  
$EndComp
$Comp
L GND #PWR?
U 1 1 5B2BFB4D
P 8200 3950
F 0 "#PWR?" H 8200 3700 50  0001 C CNN
F 1 "GND" H 8200 3800 50  0000 C CNN
F 2 "" H 8200 3950 50  0000 C CNN
F 3 "" H 8200 3950 50  0000 C CNN
	1    8200 3950
	1    0    0    -1  
$EndComp
Wire Wire Line
	8400 3950 8200 3950
Wire Wire Line
	8300 4300 8300 4200
$Comp
L HCF4093 U5
U 1 1 5B2C10CC
P 6500 4600
F 0 "U5" H 6500 4700 60  0000 C CNN
F 1 "HCF4093" H 6500 4400 60  0000 C CNN
F 2 "" H 6550 4600 60  0000 C CNN
F 3 "" H 6550 4600 60  0000 C CNN
	1    6500 4600
	1    0    0    -1  
$EndComp
$Comp
L GND #PWR?
U 1 1 5B2C1980
P 6250 5150
F 0 "#PWR?" H 6250 4900 50  0001 C CNN
F 1 "GND" H 6250 5000 50  0000 C CNN
F 2 "" H 6250 5150 50  0000 C CNN
F 3 "" H 6250 5150 50  0000 C CNN
	1    6250 5150
	1    0    0    -1  
$EndComp
Wire Wire Line
	6250 5100 6250 5150
$Comp
L -5V #PWR?
U 1 1 5B2C1A83
P 6250 4050
F 0 "#PWR?" H 6250 4150 50  0001 C CNN
F 1 "+3V3" H 6250 4200 50  0000 C CNN
F 2 "" H 6250 4050 50  0000 C CNN
F 3 "" H 6250 4050 50  0000 C CNN
	1    6250 4050
	1    0    0    -1  
$EndComp
Wire Wire Line
	6250 4050 6250 4100
$Comp
L C C8
U 1 1 5B2C1B87
P 7200 4950
F 0 "C8" H 7225 5050 50  0000 L CNN
F 1 "100n" H 7225 4850 50  0000 L CNN
F 2 "" H 7238 4800 50  0000 C CNN
F 3 "" H 7200 4950 50  0000 C CNN
	1    7200 4950
	1    0    0    -1  
$EndComp
Wire Wire Line
	7200 5100 6250 5100
Connection ~ 6250 5100
Wire Wire Line
	7200 4800 7200 4100
Wire Wire Line
	7200 4100 6250 4100
Connection ~ 6250 4100
Wire Wire Line
	7000 4500 7000 4700
Connection ~ 7000 4600
Connection ~ 7750 4600
$Comp
L C C9
U 1 1 5B2C3F0B
P 5800 4600
F 0 "C9" H 5825 4700 50  0000 L CNN
F 1 "200n" H 5825 4500 50  0000 L CNN
F 2 "" H 5838 4450 50  0000 C CNN
F 3 "" H 5800 4600 50  0000 C CNN
	1    5800 4600
	0    1    1    0   
$EndComp
$Comp
L R R4
U 1 1 5B2C48FD
P 5350 4300
F 0 "R4" V 5430 4300 50  0000 C CNN
F 1 "220k" V 5350 4300 50  0000 C CNN
F 2 "" V 5280 4300 50  0000 C CNN
F 3 "" H 5350 4300 50  0000 C CNN
	1    5350 4300
	-1   0    0    1   
$EndComp
Wire Wire Line
	4750 4600 5650 4600
Wire Wire Line
	5350 4600 5350 4450
$Comp
L -5V #PWR?
U 1 1 5B2C50B6
P 5350 4100
F 0 "#PWR?" H 5350 4200 50  0001 C CNN
F 1 "+3V3" H 5350 4250 50  0000 C CNN
F 2 "" H 5350 4100 50  0000 C CNN
F 3 "" H 5350 4100 50  0000 C CNN
	1    5350 4100
	1    0    0    -1  
$EndComp
Wire Wire Line
	5350 4100 5350 4150
$Comp
L LM358N U6
U 1 1 5B2C5A55
P 4450 4500
F 0 "U6" H 4400 4700 50  0000 L CNN
F 1 "LM358N" H 4400 4250 50  0000 L CNN
F 2 "" H 4450 4500 50  0000 C CNN
F 3 "" H 4450 4500 50  0000 C CNN
	1    4450 4500
	-1   0    0    1   
$EndComp
Connection ~ 5350 4600
Wire Wire Line
	4900 4400 4750 4400
Wire Wire Line
	4900 3850 4900 4400
Wire Wire Line
	3900 3500 3900 4500
Wire Wire Line
	3900 4500 4150 4500
$Comp
L -5V #PWR?
U 1 1 5B2C742C
P 4200 5150
F 0 "#PWR?" H 4200 5250 50  0001 C CNN
F 1 "+3V3" H 4200 5300 50  0000 C CNN
F 2 "" H 4200 5150 50  0000 C CNN
F 3 "" H 4200 5150 50  0000 C CNN
	1    4200 5150
	1    0    0    -1  
$EndComp
Wire Wire Line
	4550 4800 4550 5150
Wire Wire Line
	4200 5150 4800 5150
$Comp
L -5V #PWR?
U 1 1 5B2C9364
P 4550 4200
F 0 "#PWR?" H 4550 4300 50  0001 C CNN
F 1 "-3V3" H 4550 4350 50  0000 C CNN
F 2 "" H 4550 4200 50  0000 C CNN
F 3 "" H 4550 4200 50  0000 C CNN
	1    4550 4200
	1    0    0    -1  
$EndComp
Wire Wire Line
	3900 3850 4900 3850
$Comp
L LE555P U7
U 1 1 5B2CCAE3
P 2800 4400
F 0 "U7" H 2400 4750 50  0000 L CNN
F 1 "LE555P" H 2400 4050 50  0000 L CNN
F 2 "" H 2800 4400 50  0000 C CNN
F 3 "" H 2800 4400 50  0000 C CNN
	1    2800 4400
	1    0    0    -1  
$EndComp
$Comp
L -5V #PWR?
U 1 1 5B2CCF0A
P 2800 3850
F 0 "#PWR?" H 2800 3950 50  0001 C CNN
F 1 "+3V3" H 2800 4000 50  0000 C CNN
F 2 "" H 2800 3850 50  0000 C CNN
F 3 "" H 2800 3850 50  0000 C CNN
	1    2800 3850
	1    0    0    -1  
$EndComp
Wire Wire Line
	2800 3900 2800 3850
$Comp
L GND #PWR?
U 1 1 5B2CD485
P 2800 5200
F 0 "#PWR?" H 2800 4950 50  0001 C CNN
F 1 "GND" H 2800 5050 50  0000 C CNN
F 2 "" H 2800 5200 50  0000 C CNN
F 3 "" H 2800 5200 50  0000 C CNN
	1    2800 5200
	1    0    0    -1  
$EndComp
Wire Wire Line
	2800 4900 2800 5200
$Comp
L C C10
U 1 1 5B2CE9BD
P 4800 4900
F 0 "C10" H 4825 5000 50  0000 L CNN
F 1 "100n" H 4825 4800 50  0000 L CNN
F 2 "" H 4838 4750 50  0000 C CNN
F 3 "" H 4800 4900 50  0000 C CNN
	1    4800 4900
	1    0    0    -1  
$EndComp
Wire Wire Line
	4800 5150 4800 5050
Connection ~ 4550 5150
Wire Wire Line
	4800 4750 4800 4200
Wire Wire Line
	4800 4200 4550 4200
Connection ~ 4550 4200
$Comp
L C C13
U 1 1 5B2CF3E4
P 3250 4900
F 0 "C13" H 3275 5000 50  0000 L CNN
F 1 "100n" H 3275 4800 50  0000 L CNN
F 2 "" H 3288 4750 50  0000 C CNN
F 3 "" H 3250 4900 50  0000 C CNN
	1    3250 4900
	0    1    1    0   
$EndComp
Wire Wire Line
	1900 4900 3100 4900
Connection ~ 2800 4900
Wire Wire Line
	3400 3900 3400 4900
Wire Wire Line
	2050 3900 3450 3900
Connection ~ 2800 3900
Wire Wire Line
	6000 4600 5950 4600
$Comp
L CP C11
U 1 1 5B2D2062
P 3400 5200
F 0 "C11" H 3425 5300 50  0000 L CNN
F 1 "47µ" H 3425 5100 50  0000 L CNN
F 2 "" H 3438 5050 50  0000 C CNN
F 3 "" H 3400 5200 50  0000 C CNN
	1    3400 5200
	0    1    1    0   
$EndComp
Wire Wire Line
	2800 5200 3250 5200
Connection ~ 2800 5200
Wire Wire Line
	3550 4400 3550 5200
Wire Wire Line
	3300 4400 3750 4400
$Comp
L R R5
U 1 1 5B2D3214
P 3600 3900
F 0 "R5" V 3680 3900 50  0000 C CNN
F 1 "65k" V 3600 3900 50  0000 C CNN
F 2 "" V 3530 3900 50  0000 C CNN
F 3 "" H 3600 3900 50  0000 C CNN
	1    3600 3900
	0    -1   -1   0   
$EndComp
Connection ~ 3400 3900
Wire Wire Line
	3750 4400 3750 3900
Connection ~ 3550 4400
$Comp
L R R6
U 1 1 5B2D3545
P 2050 4050
F 0 "R6" V 2130 4050 50  0000 C CNN
F 1 "10k" V 2050 4050 50  0000 C CNN
F 2 "" V 1980 4050 50  0000 C CNN
F 3 "" H 2050 4050 50  0000 C CNN
	1    2050 4050
	1    0    0    -1  
$EndComp
Wire Wire Line
	1850 4200 2300 4200
$Comp
L C C12
U 1 1 5B2D3947
P 2050 4400
F 0 "C12" H 2075 4500 50  0000 L CNN
F 1 "10n" H 2075 4300 50  0000 L CNN
F 2 "" H 2088 4250 50  0000 C CNN
F 3 "" H 2050 4400 50  0000 C CNN
	1    2050 4400
	0    1    1    0   
$EndComp
Wire Wire Line
	2300 4400 2200 4400
Wire Wire Line
	1900 4400 1900 4900
Wire Wire Line
	1850 4200 1850 3500
Wire Wire Line
	1850 3500 3900 3500
Connection ~ 2050 4200
Connection ~ 3900 3850
$Comp
L R R7
U 1 1 5B2D415B
P 1550 3400
F 0 "R7" V 1630 3400 50  0000 C CNN
F 1 "27k" V 1550 3400 50  0000 C CNN
F 2 "" V 1480 3400 50  0000 C CNN
F 3 "" H 1550 3400 50  0000 C CNN
	1    1550 3400
	0    -1   -1   0   
$EndComp
Wire Wire Line
	1700 3400 3300 3400
Wire Wire Line
	3300 3400 3300 4200
Wire Wire Line
	3300 4600 3350 4600
Wire Wire Line
	3350 4600 3350 4400
Connection ~ 3350 4400
Wire Wire Line
	2300 4600 2250 4600
Wire Wire Line
	2250 4600 2250 3900
Connection ~ 2250 3900
Wire Wire Line
	5750 6000 5750 6250
Wire Wire Line
	9500 6000 9500 5050
Wire Wire Line
	1400 3400 1400 6100
Wire Wire Line
	1400 6100 5850 6100
Wire Wire Line
	5850 6100 5850 6250
Text Notes 4850 6100 0    60   ~ 0
trigger-out
Wire Wire Line
	2500 1950 2600 1950
Wire Wire Line
	1450 2150 2600 2150
Wire Wire Line
	3200 1450 2400 1450
Text Notes 5850 6700 0    60   ~ 0
connection to client
Wire Wire Line
	6150 1550 8000 1550
Wire Wire Line
	6150 2500 8000 2500
Wire Wire Line
	7500 2000 7800 2000
NoConn ~ 1600 1950
NoConn ~ 2100 1450
NoConn ~ 5600 1050
NoConn ~ 7350 2150
Connection ~ 8400 2100
Wire Wire Line
	5650 6250 5650 5450
Wire Wire Line
	5650 5450 5500 5450
Wire Wire Line
	5500 5450 5500 5550
Connection ~ 950  2750
NoConn ~ 8200 4300
NoConn ~ 8000 4500
Wire Wire Line
	4800 1450 4800 1550
Wire Wire Line
	4700 1450 4700 1950
Connection ~ 4700 1950
Wire Wire Line
	4600 1950 4800 1950
$Comp
L SWITCH_INV SW1
U 1 1 5B3393FE
P 4100 2050
F 0 "SW1" H 3900 2200 50  0000 C CNN
F 1 "source select" H 3950 1900 50  0000 C CNN
F 2 "" H 4100 2050 50  0000 C CNN
F 3 "" H 4100 2050 50  0000 C CNN
	1    4100 2050
	1    0    0    -1  
$EndComp
Wire Wire Line
	3600 2050 3200 2050
NoConn ~ 4600 2150
Wire Wire Line
	600  2750 600  950 
Wire Wire Line
	600  950  650  950 
Wire Wire Line
	950  950  950  2450
Wire Wire Line
	950  2450 1150 2450
$Comp
L LED D1
U 1 1 5B3D3E37
P 1600 2600
F 0 "D1" H 1600 2700 50  0000 C CNN
F 1 "LED" H 1600 2500 50  0000 C CNN
F 2 "" H 1600 2600 50  0001 C CNN
F 3 "" H 1600 2600 50  0001 C CNN
	1    1600 2600
	1    0    0    -1  
$EndComp
$Comp
L LED D2
U 1 1 5B3D4417
P 2100 2600
F 0 "D2" H 2100 2700 50  0000 C CNN
F 1 "LED" H 2100 2500 50  0000 C CNN
F 2 "" H 2100 2600 50  0001 C CNN
F 3 "" H 2100 2600 50  0001 C CNN
	1    2100 2600
	-1   0    0    1   
$EndComp
Wire Wire Line
	2300 2600 2250 2600
Wire Wire Line
	7900 850  7650 850 
Wire Wire Line
	8200 850  8400 850 
$Comp
L R R10
U 1 1 5B3D7790
P 8050 1200
F 0 "R10" V 8130 1200 50  0000 C CNN
F 1 "47k" V 8050 1200 50  0000 C CNN
F 2 "" V 7980 1200 50  0000 C CNN
F 3 "" H 8050 1200 50  0000 C CNN
	1    8050 1200
	0    1    1    0   
$EndComp
Wire Wire Line
	8200 1200 8400 1200
Connection ~ 8400 1200
Wire Wire Line
	7900 1200 7650 1200
Connection ~ 7650 1200
$EndSCHEMATC
