EESchema Schematic File Version 2
LIBS:power
LIBS:device
LIBS:transistors
LIBS:conn
LIBS:linear
LIBS:regul
LIBS:74xx
LIBS:cmos4000
LIBS:adc-dac
LIBS:memory
LIBS:xilinx
LIBS:microcontrollers
LIBS:dsp
LIBS:microchip
LIBS:analog_switches
LIBS:motorola
LIBS:texas
LIBS:intel
LIBS:audio
LIBS:interface
LIBS:digital-audio
LIBS:philips
LIBS:display
LIBS:cypress
LIBS:siliconi
LIBS:opto
LIBS:atmel
LIBS:contrib
LIBS:valves
LIBS:ESP8266
LIBS:neopixel
LIBS:l78l33acz
LIBS:client-cache
EELAYER 25 0
EELAYER END
$Descr A4 11693 8268
encoding utf-8
Sheet 1 1
Title ""
Date ""
Rev ""
Comp ""
Comment1 ""
Comment2 ""
Comment3 ""
Comment4 ""
$EndDescr
$Comp
L ESP-12F U0
U 1 1 5A5021F3
P 4600 3000
F 0 "U0" H 4600 2900 50  0000 C CNN
F 1 "ESP-12F" H 4600 3100 50  0000 C CNN
F 2 "" H 4600 3000 50  0001 C CNN
F 3 "" H 4600 3000 50  0001 C CNN
	1    4600 3000
	1    0    0    -1  
$EndComp
$Comp
L CONN_01X01 P6
U 1 1 5A502307
P 900 3400
F 0 "P6" H 900 3500 50  0000 C CNN
F 1 "+5V" V 1000 3400 50  0000 C CNN
F 2 "" H 900 3400 50  0000 C CNN
F 3 "" H 900 3400 50  0000 C CNN
	1    900  3400
	-1   0    0    1   
$EndComp
$Comp
L CONN_01X01 P5
U 1 1 5A5024F6
P 900 950
F 0 "P5" H 900 1050 50  0000 C CNN
F 1 "GND" V 1000 950 50  0000 C CNN
F 2 "" H 900 950 50  0000 C CNN
F 3 "" H 900 950 50  0000 C CNN
	1    900  950 
	-1   0    0    1   
$EndComp
$Comp
L SPST SW0
U 1 1 5A5029B4
P 1800 1450
F 0 "SW0" H 1800 1550 50  0000 C CNN
F 1 "ON/OFF" H 1800 1350 50  0000 C CNN
F 2 "" H 1800 1450 50  0000 C CNN
F 3 "" H 1800 1450 50  0000 C CNN
	1    1800 1450
	0    1    1    0   
$EndComp
$Comp
L BC547 Q0
U 1 1 5A502A63
P 8250 3850
F 0 "Q0" H 8450 3925 50  0000 L CNN
F 1 "BC547" H 8450 3850 50  0000 L CNN
F 2 "TO-92" H 8450 3775 50  0000 L CIN
F 3 "" H 8250 3850 50  0000 L CNN
	1    8250 3850
	1    0    0    -1  
$EndComp
$Comp
L CP C0
U 1 1 5A504B47
P 1150 2950
F 0 "C0" H 1175 3050 50  0000 L CNN
F 1 "1000µF" H 1175 2850 50  0000 L CNN
F 2 "" H 1188 2800 50  0000 C CNN
F 3 "" H 1150 2950 50  0000 C CNN
	1    1150 2950
	-1   0    0    1   
$EndComp
$Comp
L C C1
U 1 1 5A504D53
P 4650 4250
F 0 "C1" H 4675 4350 50  0000 L CNN
F 1 "100nF" H 4675 4150 50  0000 L CNN
F 2 "" H 4688 4100 50  0000 C CNN
F 3 "" H 4650 4250 50  0000 C CNN
	1    4650 4250
	0    1    1    0   
$EndComp
$Comp
L C C2
U 1 1 5A504EAE
P 4650 4600
F 0 "C2" H 4675 4700 50  0000 L CNN
F 1 "100nF" H 4675 4500 50  0000 L CNN
F 2 "" H 4688 4450 50  0000 C CNN
F 3 "" H 4650 4600 50  0000 C CNN
	1    4650 4600
	0    1    1    0   
$EndComp
$Comp
L CONN_01X06 P0
U 1 1 5A505181
P 6750 1800
F 0 "P0" H 6750 2150 50  0000 C CNN
F 1 "to USB-TTL Serial Modul" V 6850 1800 50  0000 C CNN
F 2 "" H 6750 1800 50  0000 C CNN
F 3 "" H 6750 1800 50  0000 C CNN
	1    6750 1800
	0    -1   -1   0   
$EndComp
$Comp
L LED D0
U 1 1 5A50642F
P 8350 3350
F 0 "D0" H 8350 3450 50  0000 C CNN
F 1 "UV_LED" H 8350 3250 50  0000 C CNN
F 2 "" H 8350 3350 50  0000 C CNN
F 3 "" H 8350 3350 50  0000 C CNN
	1    8350 3350
	0    -1   -1   0   
$EndComp
$Comp
L R R0
U 1 1 5A506543
P 8350 2900
F 0 "R0" V 8430 2900 50  0000 C CNN
F 1 "60" V 8350 2900 50  0000 C CNN
F 2 "" V 8280 2900 50  0000 C CNN
F 3 "" H 8350 2900 50  0000 C CNN
	1    8350 2900
	1    0    0    -1  
$EndComp
$Comp
L R R1
U 1 1 5A507F54
P 2900 3050
F 0 "R1" V 2980 3050 50  0000 C CNN
F 1 "1k" V 2900 3050 50  0000 C CNN
F 2 "" V 2830 3050 50  0000 C CNN
F 3 "" H 2900 3050 50  0000 C CNN
	1    2900 3050
	1    0    0    -1  
$EndComp
$Comp
L R R2
U 1 1 5A508034
P 3100 3050
F 0 "R2" V 3180 3050 50  0000 C CNN
F 1 "1k" V 3100 3050 50  0000 C CNN
F 2 "" V 3030 3050 50  0000 C CNN
F 3 "" H 3100 3050 50  0000 C CNN
	1    3100 3050
	1    0    0    -1  
$EndComp
$Comp
L CONN_01X03 P1
U 1 1 5A5084DE
P 5800 1400
F 0 "P1" H 5800 1600 50  0000 C CNN
F 1 "connect all to flash ESP" V 5900 1400 50  0000 C CNN
F 2 "" H 5800 1400 50  0000 C CNN
F 3 "" H 5800 1400 50  0000 C CNN
	1    5800 1400
	0    -1   -1   0   
$EndComp
$Comp
L CONN_01X02 P2
U 1 1 5A50864D
P 3350 1400
F 0 "P2" H 3350 1550 50  0000 C CNN
F 1 "connect both before powering to reset EEPROM" V 3450 1400 50  0000 C CNN
F 2 "" H 3350 1400 50  0000 C CNN
F 3 "" H 3350 1400 50  0000 C CNN
	1    3350 1400
	0    -1   -1   0   
$EndComp
$Comp
L R R3
U 1 1 5A508F41
P 7700 3850
F 0 "R3" V 7780 3850 50  0000 C CNN
F 1 "4.7k" V 7700 3850 50  0000 C CNN
F 2 "" V 7630 3850 50  0000 C CNN
F 3 "" H 7700 3850 50  0000 C CNN
	1    7700 3850
	0    1    1    0   
$EndComp
NoConn ~ 6500 2000
NoConn ~ 6800 2000
NoConn ~ 6900 2000
$Comp
L NeoPixel D1
U 1 1 5A50A7A6
P 9550 1850
F 0 "D1" H 9850 1950 50  0000 C CNN
F 1 "NeoPixel" H 9850 1750 50  0000 C CNN
F 2 "" H 9850 1850 50  0000 C CNN
F 3 "" H 9850 1850 50  0000 C CNN
	1    9550 1850
	1    0    0    -1  
$EndComp
$Comp
L L78l33acz U1
U 1 1 5A50AD0E
P 1800 3300
F 0 "U1" H 1800 3250 60  0000 C CNN
F 1 "L78l33acz" H 1800 3100 60  0000 C CNN
F 2 "" H 1800 3300 60  0000 C CNN
F 3 "" H 1800 3300 60  0000 C CNN
	1    1800 3300
	1    0    0    -1  
$EndComp
$Comp
L CONN_01X03 P3
U 1 1 5A50D3DE
P 10850 2400
F 0 "P3" H 10850 2600 50  0000 C CNN
F 1 "to additional neoPixel-strips" V 10950 2400 50  0000 C CNN
F 2 "" H 10850 2400 50  0000 C CNN
F 3 "" H 10850 2400 50  0000 C CNN
	1    10850 2400
	1    0    0    -1  
$EndComp
$Comp
L CP C3
U 1 1 5A50F24B
P 8600 2150
F 0 "C3" H 8625 2250 50  0000 L CNN
F 1 "22µF" H 8625 2050 50  0000 L CNN
F 2 "" H 8638 2000 50  0000 C CNN
F 3 "" H 8600 2150 50  0000 C CNN
	1    8600 2150
	0    -1   -1   0   
$EndComp
$Comp
L SPST SW1
U 1 1 5A50FC55
P 5150 5250
F 0 "SW1" H 5150 5350 50  0000 C CNN
F 1 "button0" H 5150 5150 50  0000 C CNN
F 2 "" H 5150 5250 50  0000 C CNN
F 3 "" H 5150 5250 50  0000 C CNN
	1    5150 5250
	1    0    0    -1  
$EndComp
$Comp
L R R4
U 1 1 5A51057C
P 6200 4950
F 0 "R4" V 6280 4950 50  0000 C CNN
F 1 "10" V 6200 4950 50  0000 C CNN
F 2 "" V 6130 4950 50  0000 C CNN
F 3 "" H 6200 4950 50  0000 C CNN
	1    6200 4950
	1    0    0    -1  
$EndComp
$Comp
L R R5
U 1 1 5A51104A
P 5900 4950
F 0 "R5" V 5980 4950 50  0000 C CNN
F 1 "1.5k" V 5900 4950 50  0000 C CNN
F 2 "" V 5830 4950 50  0000 C CNN
F 3 "" H 5900 4950 50  0000 C CNN
	1    5900 4950
	1    0    0    -1  
$EndComp
$Comp
L R R6
U 1 1 5A512088
P 3400 1900
F 0 "R6" V 3480 1900 50  0000 C CNN
F 1 "1k" V 3400 1900 50  0000 C CNN
F 2 "" V 3330 1900 50  0000 C CNN
F 3 "" H 3400 1900 50  0000 C CNN
	1    3400 1900
	1    0    0    -1  
$EndComp
NoConn ~ 3700 3100
NoConn ~ 3700 2800
NoConn ~ 4350 3900
NoConn ~ 4450 3900
NoConn ~ 4550 3900
NoConn ~ 4650 3900
NoConn ~ 4750 3900
NoConn ~ 4850 3900
Wire Wire Line
	3700 3400 2400 3400
Wire Wire Line
	1200 3400 1100 3400
Wire Wire Line
	1800 2850 1800 2750
Connection ~ 1150 3400
Connection ~ 1800 2200
Wire Wire Line
	3100 4250 4500 4250
Wire Wire Line
	4500 4600 4350 4600
Wire Wire Line
	4350 4600 4350 4250
Connection ~ 4350 4250
Wire Wire Line
	4800 4600 4950 4600
Wire Wire Line
	4950 4600 4950 4250
Connection ~ 4950 4250
Wire Wire Line
	6600 2000 6600 2700
Wire Wire Line
	6600 2700 5500 2700
Wire Wire Line
	6700 2000 6700 2800
Wire Wire Line
	6700 2800 5500 2800
Wire Wire Line
	7000 4250 7000 2000
Wire Wire Line
	8350 4250 8350 4050
Connection ~ 7000 4250
Wire Wire Line
	8350 3550 8350 3650
Wire Wire Line
	8350 3050 8350 3150
Wire Wire Line
	8350 1800 8350 2750
Wire Wire Line
	2900 2700 3700 2700
Wire Wire Line
	7550 4100 7550 3850
Wire Wire Line
	3400 4100 7550 4100
Wire Wire Line
	3400 3300 3700 3300
Wire Wire Line
	8050 3850 7850 3850
Wire Wire Line
	5500 2900 8100 2900
Connection ~ 8350 2500
Connection ~ 8350 4250
Wire Wire Line
	8350 1800 9050 1800
Wire Wire Line
	8350 2500 10650 2500
Wire Wire Line
	9050 1900 8850 1900
Wire Wire Line
	8850 1900 8850 4250
Wire Wire Line
	8850 4250 4800 4250
Connection ~ 9500 2500
Wire Wire Line
	10650 2400 9050 2400
Wire Wire Line
	9050 2400 9050 2000
Wire Wire Line
	10650 2300 8850 2300
Connection ~ 8850 2300
Wire Wire Line
	8750 2150 8850 2150
Connection ~ 8850 2150
Wire Wire Line
	8450 2150 8350 2150
Connection ~ 8350 2150
Wire Wire Line
	1150 2200 5900 2200
Wire Wire Line
	5900 1600 5900 4800
Wire Wire Line
	7500 3400 5500 3400
Connection ~ 5900 4250
Connection ~ 5900 3400
Wire Wire Line
	5500 3000 6200 3000
Wire Wire Line
	6200 5250 6200 5100
Wire Wire Line
	6200 3000 6200 4800
Wire Wire Line
	5900 5100 5900 5250
Wire Wire Line
	5650 5250 6200 5250
Connection ~ 5900 5250
Wire Wire Line
	2900 5250 4650 5250
Connection ~ 5900 2200
Wire Wire Line
	5800 1600 5800 3300
Wire Wire Line
	5800 3300 5500 3300
Wire Wire Line
	5500 3100 5700 3100
Wire Wire Line
	5700 3100 5700 1600
Wire Wire Line
	1150 3100 1150 5500
Wire Wire Line
	1150 5500 9500 5500
Wire Wire Line
	9500 5500 9500 2500
Wire Wire Line
	3550 3000 3700 3000
Wire Wire Line
	2900 2700 2900 2900
Wire Wire Line
	2900 3200 2900 5250
Connection ~ 2900 3400
Wire Wire Line
	3700 2900 3100 2900
Wire Wire Line
	3100 3200 3100 4250
Connection ~ 3100 3400
Wire Wire Line
	3300 1600 3300 3400
Connection ~ 3300 3400
Wire Wire Line
	3400 1600 3400 1750
Wire Wire Line
	3400 2050 3400 4100
Connection ~ 3400 3300
Wire Wire Line
	3550 3000 3550 2700
Connection ~ 3550 2700
Wire Wire Line
	1100 950  1800 950 
Wire Wire Line
	1800 1950 1800 2800
Wire Wire Line
	1150 2200 1150 2800
$Comp
L CONN_01X03 P4
U 1 1 5AB47E9D
P 7600 1350
F 0 "P4" H 7600 1550 50  0000 C CNN
F 1 "interface to trigger-sensor" V 7700 1350 50  0000 C CNN
F 2 "" H 7600 1350 50  0000 C CNN
F 3 "" H 7600 1350 50  0000 C CNN
	1    7600 1350
	0    -1   -1   0   
$EndComp
Wire Wire Line
	8100 2900 8100 1700
Wire Wire Line
	8100 1700 9050 1700
Wire Wire Line
	7500 1550 7500 3400
Wire Wire Line
	5500 3200 7900 3200
Wire Wire Line
	3700 3200 3650 3200
Wire Wire Line
	3650 3200 3650 2300
Text Notes 7700 2250 1    60   ~ 0
threshold-out
Text Notes 8000 2250 1    60   ~ 0
trigger-in
Text Notes 7450 1850 1    60   ~ 0
GND
Wire Wire Line
	7700 1550 7900 1550
Wire Wire Line
	7900 1550 7900 3200
Wire Wire Line
	7600 1550 7600 2300
Wire Wire Line
	7600 2300 3650 2300
$EndSCHEMATC
